SBDI_tree_nets
…
nrow(data_para_gen)

[1] 234

n_distinct(data_para_gen)

[1] 234

data_para_gen %>% 
  group_by(parasite, host_genus) %>% 
  summarise(n = n()) %>% 
  filter(n > 1)

# A tibble: 49 × 3
# Groups:   parasite [44]
   parasite                 host_genus     n
   <chr>                    <chr>      <int>
 1 Aceria filiformis        Ulmus          2
 2 Aculus fockeui           Prunus         2
 3 Aculus leionotus         Betula         2
 4 Andricus callidoma       Quercus        2
 5 Andricus curvator        Quercus        2
 6 Andricus fecundatrix     Quercus        2
 7 Andricus inflator        Quercus        2
 8 Andricus quadrilineatus  Quercus        2
 9 Andricus quercuscorticis Quercus        2
10 Andricus quercusradicis  Quercus        2
# ℹ 39 more rows
…
